[gd_scene load_steps=5 format=2]

[ext_resource path="res://assets/sprites/bullets/player_bullet_placeholder.png" type="Texture" id=1]
[ext_resource path="res://scenes/Bullet.cs" type="Script" id=2]

[sub_resource type="RectangleShape2D" id=2]
extents = Vector2( 1.00001, 2 )

[sub_resource type="RectangleShape2D" id=3]
extents = Vector2( 1.00001, 2 )

[node name="Bullet" type="RigidBody2D"]
position = Vector2( 1, 0 )
rotation = 1.5708
collision_layer = 8
gravity_scale = 0.0
script = ExtResource( 2 )

[node name="Sprite" type="Sprite" parent="."]
position = Vector2( 0, 1 )
rotation = 1.5708
texture = ExtResource( 1 )

[node name="Collision" type="CollisionShape2D" parent="."]
position = Vector2( 3.57628e-06, 1 )
shape = SubResource( 2 )

[node name="VisibilityNotifier2D" type="VisibilityNotifier2D" parent="."]
position = Vector2( 0.0168291, 0.981681 )
scale = Vector2( 0.0681784, 0.159535 )
__meta__ = {
"_edit_group_": true
}

[node name="Area2D" type="Area2D" parent="."]
collision_layer = 8

[node name="CollisionShape2D" type="CollisionShape2D" parent="Area2D"]
position = Vector2( 3.57628e-06, 1 )
shape = SubResource( 3 )

[connection signal="body_entered" from="." to="." method="OnBodyEntered"]
[connection signal="screen_exited" from="VisibilityNotifier2D" to="." method="OnScreenExit"]
[connection signal="area_entered" from="Area2D" to="." method="OnBodyEntered"]
