[gd_scene load_steps=4 format=2]

[ext_resource path="res://assets/sprites/enemy/enemy_Placeholder.png" type="Texture" id=1]
[ext_resource path="res://scenes/Enemy.cs" type="Script" id=2]

[sub_resource type="RectangleShape2D" id=1]
extents = Vector2( 4, 4 )

[node name="Enemy" type="RigidBody2D"]
collision_layer = 3
collision_mask = 3
mode = 3
continuous_cd = 2
contacts_reported = 1
script = ExtResource( 2 )

[node name="EnemyHitBox" type="CollisionShape2D" parent="."]
light_mask = 3
shape = SubResource( 1 )

[node name="Sprite" type="Sprite" parent="."]
texture = ExtResource( 1 )

[connection signal="body_entered" from="." to="." method="OnBodyEntered"]
