[gd_scene load_steps=2 format=2]

[sub_resource type="CapsuleShape2D" id=1]

[node name="RigidBody2D" type="RigidBody2D"]

[node name="AnimatedSprite" type="AnimatedSprite" parent="."]

[node name="CollisionShape2D" type="CollisionShape2D" parent="."]
shape = SubResource( 1 )
